…
For these data, the total catch of the species aggregates (species 140
and 168) was composed of several species. For this reason, these species
may require adding additional rows so that the total catch may be
apportioned. In our example, we repeat all rows of species 168 three
times, and repeat rows of species 140 two times, then sort by year and
species:

``` r
addrowconditional(rockfishcatch, criteriacolumn = Species,
                   repeatcount1 = 3, repeatcount2 = 2,
                   criteria1 = 168, criteria2 = 140,
                   sort1 = Year, sort2 = Species)
#> Joining, by = c("Year", "Location", "Species", "Catch")
#> Joining, by = c("Year", "Location", "Species", "Catch")
#> # A tibble: 33 x 4
#>     Year Location Species Catch
#>    <int> <fct>      <int> <int>
#>  1  2010 Outer        110    33
#>  2  2010 Inner        110    27
#>  3  2010 Middle       110    24
#>  4  2010 Outer        140    12
#>  5  2010 Inner        140    33
#>  6  2010 Middle       140    19
#>  7  2010 Outer        140    12
#>  8  2010 Inner        140    33
#>  9  2010 Middle       140    19
#> 10  2010 Outer        168    33
#> # ... with 23 more rows
```
